{ 
"total": 73, 
  "query_info": {
    "q": "", 
    "start": 0, 
    "limit": 25
   }, 
   "rows": [{
     "attribution": {
       "href": "", 
       "title": ""
     }, 
     "uuid": "9261d24e-6d0e-11e1-b985-b9db28ccb35a", 
     "_local": true, 
     "title": "Uganda subregion area by hectare in Feb 2006", 
     "_permissions": {
       "change_permissions": false, 
       "delete": false, 
       "change": false, 
       "view": false
     }, 
     "abstract": "This layer shows hectares of subregions in February 2006. This dataset is from http://cod.humanitarianresponse.info/sites/default/files/uganda_subregional2006.zip", 
     "download_links": [
       ["zip", "Zipped Shapefile ", "http://geonode.mountbatten.net/geoserver/wfs?typename=geonode%3Ahectares&outputFormat=SHAPE-ZIP&version=1.0.0&request=GetFeature&service=WFS"], 
       ["gml", "GML 2.0 ", "http://geonode.mountbatten.net/geoserver/wfs?typename=geonode%3Ahectares&outputFormat=gml2&version=1.0.0&request=GetFeature&service=WFS"], 
       ["gml", "GML 3.1.1 ", "http://geonode.mountbatten.net/geoserver/wfs?typename=geonode%3Ahectares&outputFormat=text%2Fxml%3B+subtype%3Dgml%2F3.1.1&version=1.0.0&request=GetFeature&service=WFS"], 
       ["csv", "CSV ", "http://geonode.mountbatten.net/geoserver/wfs?typename=geonode%3Ahectares&outputFormat=csv&version=1.0.0&request=GetFeature&service=WFS"], 
       ["excel", "Excel ", "http://geonode.mountbatten.net/geoserver/wfs?typename=geonode%3Ahectares&outputFormat=excel&version=1.0.0&request=GetFeature&service=WFS"], 
       ["json", "GeoJSON ", "http://geonode.mountbatten.net/geoserver/wfs?typename=geonode%3Ahectares&outputFormat=json&version=1.0.0&request=GetFeature&service=WFS"], 
       ["jpg", "JPEG ", "http://geonode.mountbatten.net/geoserver/wms?layers=geonode%3Ahectares&width=522&bbox=29.5727405548096%2C-1.47879362106323%2C35.0003089904785%2C4.23407697677612&service=WMS&format=image%2Fjpeg&srs=EPSG%3A4326&request=GetMap&height=550"], 
       ["pdf", "PDF ", "http://geonode.mountbatten.net/geoserver/wms?layers=geonode%3Ahectares&width=522&bbox=29.5727405548096%2C-1.47879362106323%2C35.0003089904785%2C4.23407697677612&service=WMS&format=application%2Fpdf&srs=EPSG%3A4326&request=GetMap&height=550"], 
       ["png", "PNG ", "http://geonode.mountbatten.net/geoserver/wms?layers=geonode%3Ahectares&width=522&bbox=29.5727405548096%2C-1.47879362106323%2C35.0003089904785%2C4.23407697677612&service=WMS&format=image%2Fpng&srs=EPSG%3A4326&request=GetMap&height=550"], 
       ["KML", "KML ", "http://geonode.mountbatten.net/geoserver/wms/kml?layers=geonode%3Ahectares&mode=download"], 
       ["KML", "View in Google Earth ", "http://geonode.mountbatten.net/geoserver/wms/kml?layers=geonode%3Ahectares&mode=refresh"]
     ], 
     "detail": "http://geonode.mountbatten.net/data/geonode:hectares", 
     "bbox": {"minx": "29.5727405548096", "miny": "-1.47879362106323", "maxx": "35.0003089904785", "maxy": "4.23407697677612"}, 
     "keywords": ["subregion"], 
     "metadata_links": [
       ["text/xml", "TC211", "http://geonode.mountbatten.net/geonetwork/srv/en/csw?service=CSW&OutputSchema=http%3A%2F%2Fwww.isotc211.org%2F2005%2Fgmd&request=GetRecordById&version=2.0.2&ElementSetName=full&id=9261d24e-6d0e-11e1-b985-b9db28ccb35a"]
     ], 
     "name": "geonode:hectares"
  }, 
  {"attribution": {"href": "", "title": ""}, "uuid": "757c0b12-94f1-11e1-9ae0-c5d08e0f88bf", "_local": true, "title": "Uganda percentage change in male population by district in 2010", "_permissions": {"change_permissions": false, "delete": false, "change": false, "view": true}, "abstract": "This layer shows percentage change in male population in 2010. The dataset is from the Information Management Unit of UNOCHA, Uganda Country Office.", "download_links": [["zip", "Zipped Shapefile ", "http://geonode.mountbatten.net/geoserver/wfs?typename=geonode%3Achange_in_malepop2010&outputFormat=SHAPE-ZIP&version=1.0.0&request=GetFeature&service=WFS"], ["gml", "GML 2.0 ", "http://geonode.mountbatten.net/geoserver/wfs?typename=geonode%3Achange_in_malepop2010&outputFormat=gml2&version=1.0.0&request=GetFeature&service=WFS"], ["gml", "GML 3.1.1 ", "http://geonode.mountbatten.net/geoserver/wfs?typename=geonode%3Achange_in_malepop2010&outputFormat=text%2Fxml%3B+subtype%3Dgml%2F3.1.1&version=1.0.0&request=GetFeature&service=WFS"], ["csv", "CSV ", "http://geonode.mountbatten.net/geoserver/wfs?typename=geonode%3Achange_in_malepop2010&outputFormat=csv&version=1.0.0&request=GetFeature&service=WFS"], ["excel", "Excel ", "http://geonode.mountbatten.net/geoserver/wfs?typename=geonode%3Achange_in_malepop2010&outputFormat=excel&version=1.0.0&request=GetFeature&service=WFS"], ["json", "GeoJSON ", "http://geonode.mountbatten.net/geoserver/wfs?typename=geonode%3Achange_in_malepop2010&outputFormat=json&version=1.0.0&request=GetFeature&service=WFS"], ["jpg", "JPEG ", "http://geonode.mountbatten.net/geoserver/wms?layers=geonode%3Achange_in_malepop2010&width=522&bbox=29.5727405548096%2C-1.47879362106323%2C35.0003089904785%2C4.23407697677612&service=WMS&format=image%2Fjpeg&srs=EPSG%3A4326&request=GetMap&height=550"], ["pdf", "PDF ", "http://geonode.mountbatten.net/geoserver/wms?layers=geonode%3Achange_in_malepop2010&width=522&bbox=29.5727405548096%2C-1.47879362106323%2C35.0003089904785%2C4.23407697677612&service=WMS&format=application%2Fpdf&srs=EPSG%3A4326&request=GetMap&height=550"], ["png", "PNG ", "http://geonode.mountbatten.net/geoserver/wms?layers=geonode%3Achange_in_malepop2010&width=522&bbox=29.5727405548096%2C-1.47879362106323%2C35.0003089904785%2C4.23407697677612&service=WMS&format=image%2Fpng&srs=EPSG%3A4326&request=GetMap&height=550"], ["KML", "KML ", "http://geonode.mountbatten.net/geoserver/wms/kml?layers=geonode%3Achange_in_malepop2010&mode=download"], ["KML", "View in Google Earth ", "http://geonode.mountbatten.net/geoserver/wms/kml?layers=geonode%3Achange_in_malepop2010&mode=refresh"]], "detail": "http://geonode.mountbatten.net/data/geonode:change_in_malepop2010", "bbox": {"minx": "29.5727405548096", "miny": "-1.47879362106323", "maxx": "35.0003089904785", "maxy": "4.23407697677612"}, "keywords": ["Male,", "Population", "change"], "metadata_links": [["text/xml", "TC211", "http://geonode.mountbatten.net/geonetwork/srv/en/csw?service=CSW&OutputSchema=http%3A%2F%2Fwww.isotc211.org%2F2005%2Fgmd&request=GetRecordById&version=2.0.2&ElementSetName=full&id=757c0b12-94f1-11e1-9ae0-c5d08e0f88bf"]], "name": "geonode:change_in_malepop2010"}, {"attribution": {"href": "", "title": ""}, "uuid": "4cb094d8-69f3-11e1-a94e-4f4c36ff158d", "_local": true, "title": "Uganda Acholi water source types in January 2011", "_permissions": {"change_permissions": false, "delete": false, "change": false, "view": true}, "abstract": "This layer shows Acholi water source types in January 2011. The dataset is from http://cod.humanitarianresponse.info/sites/default/files/uganda_acholi_watersources2011.zip", "download_links": [["zip", "Zipped Shapefile ", "http://geonode.mountbatten.net/geoserver/wfs?typename=geonode%3Asource_type&outputFormat=SHAPE-ZIP&version=1.0.0&request=GetFeature&service=WFS"], ["gml", "GML 2.0 ", "http://geonode.mountbatten.net/geoserver/wfs?typename=geonode%3Asource_type&outputFormat=gml2&version=1.0.0&request=GetFeature&service=WFS"], ["gml", "GML 3.1.1 ", "http://geonode.mountbatten.net/geoserver/wfs?typename=geonode%3Asource_type&outputFormat=text%2Fxml%3B+subtype%3Dgml%2F3.1.1&version=1.0.0&request=GetFeature&service=WFS"], ["csv", "CSV ", "http://geonode.mountbatten.net/geoserver/wfs?typename=geonode%3Asource_type&outputFormat=csv&version=1.0.0&request=GetFeature&service=WFS"], ["excel", "Excel ", "http://geonode.mountbatten.net/geoserver/wfs?typename=geonode%3Asource_type&outputFormat=excel&version=1.0.0&request=GetFeature&service=WFS"], ["json", "GeoJSON ", "http://geonode.mountbatten.net/geoserver/wfs?typename=geonode%3Asource_type&outputFormat=json&version=1.0.0&request=GetFeature&service=WFS"], ["jpg", "JPEG ", "http://geonode.mountbatten.net/geoserver/wms?layers=geonode%3Asource_type&width=420&bbox=33.5482368469238%2C1.44782853126526%2C35.328182220459%2C3.7764310836792&service=WMS&format=image%2Fjpeg&srs=EPSG%3A4326&request=GetMap&height=550"], ["pdf", "PDF ", "http://geonode.mountbatten.net/geoserver/wms?layers=geonode%3Asource_type&width=420&bbox=33.5482368469238%2C1.44782853126526%2C35.328182220459%2C3.7764310836792&service=WMS&format=application%2Fpdf&srs=EPSG%3A4326&request=GetMap&height=550"], ["png", "PNG ", "http://geonode.mountbatten.net/geoserver/wms?layers=geonode%3Asource_type&width=420&bbox=33.5482368469238%2C1.44782853126526%2C35.328182220459%2C3.7764310836792&service=WMS&format=image%2Fpng&srs=EPSG%3A4326&request=GetMap&height=550"], ["KML", "KML ", "http://geonode.mountbatten.net/geoserver/wms/kml?layers=geonode%3Asource_type&mode=download"], ["KML", "View in Google Earth ", "http://geonode.mountbatten.net/geoserver/wms/kml?layers=geonode%3Asource_type&mode=refresh"]], "detail": "http://geonode.mountbatten.net/data/geonode:source_type", "bbox": {"minx": "33.5482368469238", "miny": "1.44782853126526", "maxx": "35.328182220459", "maxy": "3.7764310836792"}, "keywords": ["Water", "source,", "Acholi"], "metadata_links": [["text/xml", "TC211", "http://geonode.mountbatten.net/geonetwork/srv/en/csw?service=CSW&OutputSchema=http%3A%2F%2Fwww.isotc211.org%2F2005%2Fgmd&request=GetRecordById&version=2.0.2&ElementSetName=full&id=4cb094d8-69f3-11e1-a94e-4f4c36ff158d"]], "name": "geonode:source_type"}, {"attribution": {"href": "", "title": ""}, "uuid": "6cfe2bb8-3d36-11e1-bd3b-11866dac5b4c", "_local": true, "title": "Uganda total area of wetlands(square km) by sub county_1996", "_permissions": {"change_permissions": false, "delete": false, "change": false, "view": true}, "abstract": "The layer shows area of wetlands per capita in Uganda sub counties. This dataset was downloaded from http://docs.wri.org/Ug_Wetland-area-per-capita.zip", "download_links": [["zip", "Zipped Shapefile ", "http://geonode.mountbatten.net/geoserver/wfs?typename=geonode%3Awtot_1&outputFormat=SHAPE-ZIP&version=1.0.0&request=GetFeature&service=WFS"], ["gml", "GML 2.0 ", "http://geonode.mountbatten.net/geoserver/wfs?typename=geonode%3Awtot_1&outputFormat=gml2&version=1.0.0&request=GetFeature&service=WFS"], ["gml", "GML 3.1.1 ", "http://geonode.mountbatten.net/geoserver/wfs?typename=geonode%3Awtot_1&outputFormat=text%2Fxml%3B+subtype%3Dgml%2F3.1.1&version=1.0.0&request=GetFeature&service=WFS"], ["csv", "CSV ", "http://geonode.mountbatten.net/geoserver/wfs?typename=geonode%3Awtot_1&outputFormat=csv&version=1.0.0&request=GetFeature&service=WFS"], ["excel", "Excel ", "http://geonode.mountbatten.net/geoserver/wfs?typename=geonode%3Awtot_1&outputFormat=excel&version=1.0.0&request=GetFeature&service=WFS"], ["json", "GeoJSON ", "http://geonode.mountbatten.net/geoserver/wfs?typename=geonode%3Awtot_1&outputFormat=json&version=1.0.0&request=GetFeature&service=WFS"], ["jpg", "JPEG ", "http://geonode.mountbatten.net/geoserver/wms?layers=geonode%3Awtot_1&width=526&bbox=29.5966987609863%2C-1.47391366958618%2C35.0225868225098%2C4.19854211807251&service=WMS&format=image%2Fjpeg&srs=EPSG%3A4326&request=GetMap&height=550"], ["pdf", "PDF ", "http://geonode.mountbatten.net/geoserver/wms?layers=geonode%3Awtot_1&width=526&bbox=29.5966987609863%2C-1.47391366958618%2C35.0225868225098%2C4.19854211807251&service=WMS&format=application%2Fpdf&srs=EPSG%3A4326&request=GetMap&height=550"], ["png", "PNG ", "http://geonode.mountbatten.net/geoserver/wms?layers=geonode%3Awtot_1&width=526&bbox=29.5966987609863%2C-1.47391366958618%2C35.0225868225098%2C4.19854211807251&service=WMS&format=image%2Fpng&srs=EPSG%3A4326&request=GetMap&height=550"], ["KML", "KML ", "http://geonode.mountbatten.net/geoserver/wms/kml?layers=geonode%3Awtot_1&mode=download"], ["KML", "View in Google Earth ", "http://geonode.mountbatten.net/geoserver/wms/kml?layers=geonode%3Awtot_1&mode=refresh"]], "detail": "http://geonode.mountbatten.net/data/geonode:wtot_1", "bbox": {"minx": "29.5966987609863", "miny": "-1.47391366958618", "maxx": "35.0225868225098", "maxy": "4.19854211807251"}, "keywords": ["Wetlands,", "Poverty"], "metadata_links": [["text/xml", "TC211", "http://geonode.mountbatten.net/geonetwork/srv/en/csw?service=CSW&OutputSchema=http%3A%2F%2Fwww.isotc211.org%2F2005%2Fgmd&request=GetRecordById&version=2.0.2&ElementSetName=full&id=6cfe2bb8-3d36-11e1-bd3b-11866dac5b4c"]], "name": "geonode:wtot_1"}, {"attribution": {"href": "", "title": ""}, "uuid": "bb58e9fe-0f8e-11e1-9abe-cd85d28c9193", "_local": true, "title": "Uganda average inequality in rural sub countiesin 2005", "_permissions": {"change_permissions": false, "delete": false, "change": false, "view": true}, "abstract": "The layer shows measure of inequality in 855 rural sub counties in 2005. The dataset is from http://docs.wri.org/Ug_Rural-Poverty2005.zip", "download_links": [["zip", "Zipped Shapefile ", "http://geonode.mountbatten.net/geoserver/wfs?typename=geonode%3AMeasure_of_Inequality&outputFormat=SHAPE-ZIP&version=1.0.0&request=GetFeature&service=WFS"], ["gml", "GML 2.0 ", "http://geonode.mountbatten.net/geoserver/wfs?typename=geonode%3AMeasure_of_Inequality&outputFormat=gml2&version=1.0.0&request=GetFeature&service=WFS"], ["gml", "GML 3.1.1 ", "http://geonode.mountbatten.net/geoserver/wfs?typename=geonode%3AMeasure_of_Inequality&outputFormat=text%2Fxml%3B+subtype%3Dgml%2F3.1.1&version=1.0.0&request=GetFeature&service=WFS"], ["csv", "CSV ", "http://geonode.mountbatten.net/geoserver/wfs?typename=geonode%3AMeasure_of_Inequality&outputFormat=csv&version=1.0.0&request=GetFeature&service=WFS"], ["excel", "Excel ", "http://geonode.mountbatten.net/geoserver/wfs?typename=geonode%3AMeasure_of_Inequality&outputFormat=excel&version=1.0.0&request=GetFeature&service=WFS"], ["json", "GeoJSON ", "http://geonode.mountbatten.net/geoserver/wfs?typename=geonode%3AMeasure_of_Inequality&outputFormat=json&version=1.0.0&request=GetFeature&service=WFS"], ["jpg", "JPEG ", "http://geonode.mountbatten.net/geoserver/wms?layers=geonode%3AMeasure_of_Inequality&width=522&bbox=29.5727405548096%2C-1.47879362106323%2C35.0003089904785%2C4.23407697677612&service=WMS&format=image%2Fjpeg&srs=EPSG%3A4326&request=GetMap&height=550"], ["pdf", "PDF ", "http://geonode.mountbatten.net/geoserver/wms?layers=geonode%3AMeasure_of_Inequality&width=522&bbox=29.5727405548096%2C-1.47879362106323%2C35.0003089904785%2C4.23407697677612&service=WMS&format=application%2Fpdf&srs=EPSG%3A4326&request=GetMap&height=550"], ["png", "PNG ", "http://geonode.mountbatten.net/geoserver/wms?layers=geonode%3AMeasure_of_Inequality&width=522&bbox=29.5727405548096%2C-1.47879362106323%2C35.0003089904785%2C4.23407697677612&service=WMS&format=image%2Fpng&srs=EPSG%3A4326&request=GetMap&height=550"], ["KML", "KML ", "http://geonode.mountbatten.net/geoserver/wms/kml?layers=geonode%3AMeasure_of_Inequality&mode=download"], ["KML", "View in Google Earth ", "http://geonode.mountbatten.net/geoserver/wms/kml?layers=geonode%3AMeasure_of_Inequality&mode=refresh"]], "detail": "http://geonode.mountbatten.net/data/geonode:Measure_of_Inequality", "bbox": {"minx": "29.5727405548096", "miny": "-1.47879362106323", "maxx": "35.0003089904785", "maxy": "4.23407697677612"}, "keywords": ["Economy,", "Poverty"], "metadata_links": [["text/xml", "TC211", "http://geonode.mountbatten.net/geonetwork/srv/en/csw?service=CSW&OutputSchema=http%3A%2F%2Fwww.isotc211.org%2F2005%2Fgmd&request=GetRecordById&version=2.0.2&ElementSetName=full&id=bb58e9fe-0f8e-11e1-9abe-cd85d28c9193"]], "name": "geonode:Measure_of_Inequality"}, {"attribution": {"href": "", "title": ""}, "uuid": "5ec8e146-6842-11e1-8989-ad1cf8d71d6a", "_local": true, "title": "Uganda school location type in northern uganda in January 2011", "_permissions": {"change_permissions": false, "delete": false, "change": false, "view": true}, "abstract": "Uganda school location type in northern Uganda\nThis dataset is was downloaded from http://cod.humanitarianresponse.info/sites/default/files/uganda_north-uganda_schools_jan2011.zip", "download_links": [["zip", "Zipped Shapefile ", "http://geonode.mountbatten.net/geoserver/wfs?typename=geonode%3Alocation_type&outputFormat=SHAPE-ZIP&version=1.0.0&request=GetFeature&service=WFS"], ["gml", "GML 2.0 ", "http://geonode.mountbatten.net/geoserver/wfs?typename=geonode%3Alocation_type&outputFormat=gml2&version=1.0.0&request=GetFeature&service=WFS"], ["gml", "GML 3.1.1 ", "http://geonode.mountbatten.net/geoserver/wfs?typename=geonode%3Alocation_type&outputFormat=text%2Fxml%3B+subtype%3Dgml%2F3.1.1&version=1.0.0&request=GetFeature&service=WFS"], ["csv", "CSV ", "http://geonode.mountbatten.net/geoserver/wfs?typename=geonode%3Alocation_type&outputFormat=csv&version=1.0.0&request=GetFeature&service=WFS"], ["excel", "Excel ", "http://geonode.mountbatten.net/geoserver/wfs?typename=geonode%3Alocation_type&outputFormat=excel&version=1.0.0&request=GetFeature&service=WFS"], ["json", "GeoJSON ", "http://geonode.mountbatten.net/geoserver/wfs?typename=geonode%3Alocation_type&outputFormat=json&version=1.0.0&request=GetFeature&service=WFS"], ["jpg", "JPEG ", "http://geonode.mountbatten.net/geoserver/wms?layers=geonode%3Alocation_type&width=636&bbox=28.5090389251709%2C-1.80386745929718%2C34.9960136413574%2C3.80488014221191&service=WMS&format=image%2Fjpeg&srs=EPSG%3A4326&request=GetMap&height=550"], ["pdf", "PDF ", "http://geonode.mountbatten.net/geoserver/wms?layers=geonode%3Alocation_type&width=636&bbox=28.5090389251709%2C-1.80386745929718%2C34.9960136413574%2C3.80488014221191&service=WMS&format=application%2Fpdf&srs=EPSG%3A4326&request=GetMap&height=550"], ["png", "PNG ", "http://geonode.mountbatten.net/geoserver/wms?layers=geonode%3Alocation_type&width=636&bbox=28.5090389251709%2C-1.80386745929718%2C34.9960136413574%2C3.80488014221191&service=WMS&format=image%2Fpng&srs=EPSG%3A4326&request=GetMap&height=550"], ["KML", "KML ", "http://geonode.mountbatten.net/geoserver/wms/kml?layers=geonode%3Alocation_type&mode=download"], ["KML", "View in Google Earth ", "http://geonode.mountbatten.net/geoserver/wms/kml?layers=geonode%3Alocation_type&mode=refresh"]], "detail": "http://geonode.mountbatten.net/data/geonode:location_type", "bbox": {"minx": "28.5090389251709", "miny": "-1.80386745929718", "maxx": "34.9960136413574", "maxy": "3.80488014221191"}, "keywords": ["School,", "Northern", "Uganda"], "metadata_links": [["text/xml", "TC211", "http://geonode.mountbatten.net/geonetwork/srv/en/csw?service=CSW&OutputSchema=http%3A%2F%2Fwww.isotc211.org%2F2005%2Fgmd&request=GetRecordById&version=2.0.2&ElementSetName=full&id=5ec8e146-6842-11e1-8989-ad1cf8d71d6a"]], "name": "geonode:location_type"}, {"attribution": {"href": "", "title": ""}, "uuid": "3a00fe3e-94f2-11e1-a803-c5d08e0f88bf", "_local": true, "title": "Uganda district percentage change in population density in 2010", "_permissions": {"change_permissions": false, "delete": false, "change": false, "view": true}, "abstract": "This layer shows the percentage change in population density in Uganda districts, 2010. The dataset  is from the Information Management Unit of the  UNOCHA, Uganda Country Office.", "download_links": [["zip", "Zipped Shapefile ", "http://geonode.mountbatten.net/geoserver/wfs?typename=geonode%3Achange_in_popdens2010&outputFormat=SHAPE-ZIP&version=1.0.0&request=GetFeature&service=WFS"], ["gml", "GML 2.0 ", "http://geonode.mountbatten.net/geoserver/wfs?typename=geonode%3Achange_in_popdens2010&outputFormat=gml2&version=1.0.0&request=GetFeature&service=WFS"], ["gml", "GML 3.1.1 ", "http://geonode.mountbatten.net/geoserver/wfs?typename=geonode%3Achange_in_popdens2010&outputFormat=text%2Fxml%3B+subtype%3Dgml%2F3.1.1&version=1.0.0&request=GetFeature&service=WFS"], ["csv", "CSV ", "http://geonode.mountbatten.net/geoserver/wfs?typename=geonode%3Achange_in_popdens2010&outputFormat=csv&version=1.0.0&request=GetFeature&service=WFS"], ["excel", "Excel ", "http://geonode.mountbatten.net/geoserver/wfs?typename=geonode%3Achange_in_popdens2010&outputFormat=excel&version=1.0.0&request=GetFeature&service=WFS"], ["json", "GeoJSON ", "http://geonode.mountbatten.net/geoserver/wfs?typename=geonode%3Achange_in_popdens2010&outputFormat=json&version=1.0.0&request=GetFeature&service=WFS"], ["jpg", "JPEG ", "http://geonode.mountbatten.net/geoserver/wms?layers=geonode%3Achange_in_popdens2010&width=522&bbox=29.5727405548096%2C-1.47879362106323%2C35.0003089904785%2C4.23407697677612&service=WMS&format=image%2Fjpeg&srs=EPSG%3A4326&request=GetMap&height=550"], ["pdf", "PDF ", "http://geonode.mountbatten.net/geoserver/wms?layers=geonode%3Achange_in_popdens2010&width=522&bbox=29.5727405548096%2C-1.47879362106323%2C35.0003089904785%2C4.23407697677612&service=WMS&format=application%2Fpdf&srs=EPSG%3A4326&request=GetMap&height=550"], ["png", "PNG ", "http://geonode.mountbatten.net/geoserver/wms?layers=geonode%3Achange_in_popdens2010&width=522&bbox=29.5727405548096%2C-1.47879362106323%2C35.0003089904785%2C4.23407697677612&service=WMS&format=image%2Fpng&srs=EPSG%3A4326&request=GetMap&height=550"], ["KML", "KML ", "http://geonode.mountbatten.net/geoserver/wms/kml?layers=geonode%3Achange_in_popdens2010&mode=download"], ["KML", "View in Google Earth ", "http://geonode.mountbatten.net/geoserver/wms/kml?layers=geonode%3Achange_in_popdens2010&mode=refresh"]], "detail": "http://geonode.mountbatten.net/data/geonode:change_in_popdens2010", "bbox": {"minx": "29.5727405548096", "miny": "-1.47879362106323", "maxx": "35.0003089904785", "maxy": "4.23407697677612"}, "keywords": ["Population", "density"], "metadata_links": [["text/xml", "TC211", "http://geonode.mountbatten.net/geonetwork/srv/en/csw?service=CSW&OutputSchema=http%3A%2F%2Fwww.isotc211.org%2F2005%2Fgmd&request=GetRecordById&version=2.0.2&ElementSetName=full&id=3a00fe3e-94f2-11e1-a803-c5d08e0f88bf"]], "name": "geonode:change_in_popdens2010"}, {"attribution": {"href": "", "title": ""}, "uuid": "74f17334-1b5d-11e1-a4f7-9770d4a9df40", "_local": true, "title": "Uganda other land use types in 2006", "_permissions": {"change_permissions": false, "delete": false, "change": false, "view": true}, "abstract": "This layer shows other land use types without populated area.  The data is downloaded from http://cod.humanitarianresponse.info/sites/default/files/uganda_other_landuse_type2006.zip", "download_links": [["zip", "Zipped Shapefile ", "http://geonode.mountbatten.net/geoserver/wfs?typename=geonode%3AUganda_other_land_types&outputFormat=SHAPE-ZIP&version=1.0.0&request=GetFeature&service=WFS"], ["gml", "GML 2.0 ", "http://geonode.mountbatten.net/geoserver/wfs?typename=geonode%3AUganda_other_land_types&outputFormat=gml2&version=1.0.0&request=GetFeature&service=WFS"], ["gml", "GML 3.1.1 ", "http://geonode.mountbatten.net/geoserver/wfs?typename=geonode%3AUganda_other_land_types&outputFormat=text%2Fxml%3B+subtype%3Dgml%2F3.1.1&version=1.0.0&request=GetFeature&service=WFS"], ["csv", "CSV ", "http://geonode.mountbatten.net/geoserver/wfs?typename=geonode%3AUganda_other_land_types&outputFormat=csv&version=1.0.0&request=GetFeature&service=WFS"], ["excel", "Excel ", "http://geonode.mountbatten.net/geoserver/wfs?typename=geonode%3AUganda_other_land_types&outputFormat=excel&version=1.0.0&request=GetFeature&service=WFS"], ["json", "GeoJSON ", "http://geonode.mountbatten.net/geoserver/wfs?typename=geonode%3AUganda_other_land_types&outputFormat=json&version=1.0.0&request=GetFeature&service=WFS"], ["jpg", "JPEG ", "http://geonode.mountbatten.net/geoserver/wms?layers=geonode%3AUganda_other_land_types&width=509&bbox=29.5839614868164%2C-1.39620208740234%2C34.7412757873535%2C4.17395210266113&service=WMS&format=image%2Fjpeg&srs=EPSG%3A4326&request=GetMap&height=550"], ["pdf", "PDF ", "http://geonode.mountbatten.net/geoserver/wms?layers=geonode%3AUganda_other_land_types&width=509&bbox=29.5839614868164%2C-1.39620208740234%2C34.7412757873535%2C4.17395210266113&service=WMS&format=application%2Fpdf&srs=EPSG%3A4326&request=GetMap&height=550"], ["png", "PNG ", "http://geonode.mountbatten.net/geoserver/wms?layers=geonode%3AUganda_other_land_types&width=509&bbox=29.5839614868164%2C-1.39620208740234%2C34.7412757873535%2C4.17395210266113&service=WMS&format=image%2Fpng&srs=EPSG%3A4326&request=GetMap&height=550"], ["KML", "KML ", "http://geonode.mountbatten.net/geoserver/wms/kml?layers=geonode%3AUganda_other_land_types&mode=download"], ["KML", "View in Google Earth ", "http://geonode.mountbatten.net/geoserver/wms/kml?layers=geonode%3AUganda_other_land_types&mode=refresh"]], "detail": "http://geonode.mountbatten.net/data/geonode:Uganda_other_land_types", "bbox": {"minx": "29.5839614868164", "miny": "-1.39620208740234", "maxx": "34.7412757873535", "maxy": "4.17395210266113"}, "keywords": ["Uganda,", "Landuse"], "metadata_links": [["text/xml", "TC211", "http://geonode.mountbatten.net/geonetwork/srv/en/csw?service=CSW&OutputSchema=http%3A%2F%2Fwww.isotc211.org%2F2005%2Fgmd&request=GetRecordById&version=2.0.2&ElementSetName=full&id=74f17334-1b5d-11e1-a4f7-9770d4a9df40"]], "name": "geonode:Uganda_other_land_types"}, {"attribution": {"href": "", "title": ""}, "uuid": "b5572a64-6c1f-11e1-a27f-b99ebd85e4a2", "_local": true, "title": "Uganda Acholi water source status in January 2011", "_permissions": {"change_permissions": false, "delete": false, "change": false, "view": true}, "abstract": "The layer shows Acholi water source status in January 2011. The dataset was downloaded from http://cod.humanitarianresponse.info/sites/default/files/uganda_acholi_watersources2011.zip", "download_links": [["zip", "Zipped Shapefile ", "http://geonode.mountbatten.net/geoserver/wfs?typename=geonode%3Asource_status&outputFormat=SHAPE-ZIP&version=1.0.0&request=GetFeature&service=WFS"], ["gml", "GML 2.0 ", "http://geonode.mountbatten.net/geoserver/wfs?typename=geonode%3Asource_status&outputFormat=gml2&version=1.0.0&request=GetFeature&service=WFS"], ["gml", "GML 3.1.1 ", "http://geonode.mountbatten.net/geoserver/wfs?typename=geonode%3Asource_status&outputFormat=text%2Fxml%3B+subtype%3Dgml%2F3.1.1&version=1.0.0&request=GetFeature&service=WFS"], ["csv", "CSV ", "http://geonode.mountbatten.net/geoserver/wfs?typename=geonode%3Asource_status&outputFormat=csv&version=1.0.0&request=GetFeature&service=WFS"], ["excel", "Excel ", "http://geonode.mountbatten.net/geoserver/wfs?typename=geonode%3Asource_status&outputFormat=excel&version=1.0.0&request=GetFeature&service=WFS"], ["json", "GeoJSON ", "http://geonode.mountbatten.net/geoserver/wfs?typename=geonode%3Asource_status&outputFormat=json&version=1.0.0&request=GetFeature&service=WFS"], ["jpg", "JPEG ", "http://geonode.mountbatten.net/geoserver/wms?layers=geonode%3Asource_status&width=772&bbox=31.3965148925781%2C2.21692109107971%2C33.6592788696289%2C3.82822322845459&service=WMS&format=image%2Fjpeg&srs=EPSG%3A4326&request=GetMap&height=550"], ["pdf", "PDF ", "http://geonode.mountbatten.net/geoserver/wms?layers=geonode%3Asource_status&width=772&bbox=31.3965148925781%2C2.21692109107971%2C33.6592788696289%2C3.82822322845459&service=WMS&format=application%2Fpdf&srs=EPSG%3A4326&request=GetMap&height=550"], ["png", "PNG ", "http://geonode.mountbatten.net/geoserver/wms?layers=geonode%3Asource_status&width=772&bbox=31.3965148925781%2C2.21692109107971%2C33.6592788696289%2C3.82822322845459&service=WMS&format=image%2Fpng&srs=EPSG%3A4326&request=GetMap&height=550"], ["KML", "KML ", "http://geonode.mountbatten.net/geoserver/wms/kml?layers=geonode%3Asource_status&mode=download"], ["KML", "View in Google Earth ", "http://geonode.mountbatten.net/geoserver/wms/kml?layers=geonode%3Asource_status&mode=refresh"]], "detail": "http://geonode.mountbatten.net/data/geonode:source_status", "bbox": {"minx": "31.3965148925781", "miny": "2.21692109107971", "maxx": "33.6592788696289", "maxy": "3.82822322845459"}, "keywords": ["Water", "source"], "metadata_links": [["text/xml", "TC211", "http://geonode.mountbatten.net/geonetwork/srv/en/csw?service=CSW&OutputSchema=http%3A%2F%2Fwww.isotc211.org%2F2005%2Fgmd&request=GetRecordById&version=2.0.2&ElementSetName=full&id=b5572a64-6c1f-11e1-a27f-b99ebd85e4a2"]], "name": "geonode:source_status"}, {"attribution": {"href": "", "title": ""}, "uuid": "bca44c12-3cf8-11e1-8f6b-971b488d0cba", "_local": true, "title": "Uganda percentage of house holds with access to improved sanitation in 2002", "_permissions": {"change_permissions": false, "delete": false, "change": false, "view": true}, "abstract": "Uganda environmental health census data by sub county. This dataset is from http://docs.wri.org/Ug_Environmental-health_Census2002.zip", "download_links": [["zip", "Zipped Shapefile ", "http://geonode.mountbatten.net/geoserver/wfs?typename=geonode%3Alat_prct&outputFormat=SHAPE-ZIP&version=1.0.0&request=GetFeature&service=WFS"], ["gml", "GML 2.0 ", "http://geonode.mountbatten.net/geoserver/wfs?typename=geonode%3Alat_prct&outputFormat=gml2&version=1.0.0&request=GetFeature&service=WFS"], ["gml", "GML 3.1.1 ", "http://geonode.mountbatten.net/geoserver/wfs?typename=geonode%3Alat_prct&outputFormat=text%2Fxml%3B+subtype%3Dgml%2F3.1.1&version=1.0.0&request=GetFeature&service=WFS"], ["csv", "CSV ", "http://geonode.mountbatten.net/geoserver/wfs?typename=geonode%3Alat_prct&outputFormat=csv&version=1.0.0&request=GetFeature&service=WFS"], ["excel", "Excel ", "http://geonode.mountbatten.net/geoserver/wfs?typename=geonode%3Alat_prct&outputFormat=excel&version=1.0.0&request=GetFeature&service=WFS"], ["json", "GeoJSON ", "http://geonode.mountbatten.net/geoserver/wfs?typename=geonode%3Alat_prct&outputFormat=json&version=1.0.0&request=GetFeature&service=WFS"], ["jpg", "JPEG ", "http://geonode.mountbatten.net/geoserver/wms?layers=geonode%3Alat_prct&width=522&bbox=29.5727405548096%2C-1.47879362106323%2C35.0003089904785%2C4.23407697677612&service=WMS&format=image%2Fjpeg&srs=EPSG%3A4326&request=GetMap&height=550"], ["pdf", "PDF ", "http://geonode.mountbatten.net/geoserver/wms?layers=geonode%3Alat_prct&width=522&bbox=29.5727405548096%2C-1.47879362106323%2C35.0003089904785%2C4.23407697677612&service=WMS&format=application%2Fpdf&srs=EPSG%3A4326&request=GetMap&height=550"], ["png", "PNG ", "http://geonode.mountbatten.net/geoserver/wms?layers=geonode%3Alat_prct&width=522&bbox=29.5727405548096%2C-1.47879362106323%2C35.0003089904785%2C4.23407697677612&service=WMS&format=image%2Fpng&srs=EPSG%3A4326&request=GetMap&height=550"], ["KML", "KML ", "http://geonode.mountbatten.net/geoserver/wms/kml?layers=geonode%3Alat_prct&mode=download"], ["KML", "View in Google Earth ", "http://geonode.mountbatten.net/geoserver/wms/kml?layers=geonode%3Alat_prct&mode=refresh"]], "detail": "http://geonode.mountbatten.net/data/geonode:lat_prct", "bbox": {"minx": "29.5727405548096", "miny": "-1.47879362106323", "maxx": "35.0003089904785", "maxy": "4.23407697677612"}, "keywords": ["Environment,", "Health,", "Sanitation"], "metadata_links": [["text/xml", "TC211", "http://geonode.mountbatten.net/geonetwork/srv/en/csw?service=CSW&OutputSchema=http%3A%2F%2Fwww.isotc211.org%2F2005%2Fgmd&request=GetRecordById&version=2.0.2&ElementSetName=full&id=bca44c12-3cf8-11e1-8f6b-971b488d0cba"]], "name": "geonode:lat_prct"}, {"attribution": {"href": "", "title": ""}, "uuid": "e70b15a2-78e5-11e1-bd8c-d96cbf910a1e", "_local": true, "title": "Uganda Protected areas_gazetted area(hectares)_2007", "_permissions": {"change_permissions": false, "delete": false, "change": false, "view": true}, "abstract": "This layer shows gazetted areas of Uganda as of 2007. This dataset is from the National Forestry Authority, Government of Uganda and the World Resources Institute and downloaded from http://docs.wri.org/Ug_Protected-areas2007.zip", "download_links": [["zip", "Zipped Shapefile ", "http://geonode.mountbatten.net/geoserver/wfs?typename=geonode%3Agaz_ha&outputFormat=SHAPE-ZIP&version=1.0.0&request=GetFeature&service=WFS"], ["gml", "GML 2.0 ", "http://geonode.mountbatten.net/geoserver/wfs?typename=geonode%3Agaz_ha&outputFormat=gml2&version=1.0.0&request=GetFeature&service=WFS"], ["gml", "GML 3.1.1 ", "http://geonode.mountbatten.net/geoserver/wfs?typename=geonode%3Agaz_ha&outputFormat=text%2Fxml%3B+subtype%3Dgml%2F3.1.1&version=1.0.0&request=GetFeature&service=WFS"], ["csv", "CSV ", "http://geonode.mountbatten.net/geoserver/wfs?typename=geonode%3Agaz_ha&outputFormat=csv&version=1.0.0&request=GetFeature&service=WFS"], ["excel", "Excel ", "http://geonode.mountbatten.net/geoserver/wfs?typename=geonode%3Agaz_ha&outputFormat=excel&version=1.0.0&request=GetFeature&service=WFS"], ["json", "GeoJSON ", "http://geonode.mountbatten.net/geoserver/wfs?typename=geonode%3Agaz_ha&outputFormat=json&version=1.0.0&request=GetFeature&service=WFS"], ["jpg", "JPEG ", "http://geonode.mountbatten.net/geoserver/wms?layers=geonode%3Agaz_ha&width=521&bbox=29.5846977233887%2C-1.38992083072662%2C34.9123306274414%2C4.23123502731323&service=WMS&format=image%2Fjpeg&srs=EPSG%3A4326&request=GetMap&height=550"], ["pdf", "PDF ", "http://geonode.mountbatten.net/geoserver/wms?layers=geonode%3Agaz_ha&width=521&bbox=29.5846977233887%2C-1.38992083072662%2C34.9123306274414%2C4.23123502731323&service=WMS&format=application%2Fpdf&srs=EPSG%3A4326&request=GetMap&height=550"], ["png", "PNG ", "http://geonode.mountbatten.net/geoserver/wms?layers=geonode%3Agaz_ha&width=521&bbox=29.5846977233887%2C-1.38992083072662%2C34.9123306274414%2C4.23123502731323&service=WMS&format=image%2Fpng&srs=EPSG%3A4326&request=GetMap&height=550"], ["KML", "KML ", "http://geonode.mountbatten.net/geoserver/wms/kml?layers=geonode%3Agaz_ha&mode=download"], ["KML", "View in Google Earth ", "http://geonode.mountbatten.net/geoserver/wms/kml?layers=geonode%3Agaz_ha&mode=refresh"]], "detail": "http://geonode.mountbatten.net/data/geonode:gaz_ha", "bbox": {"minx": "29.5846977233887", "miny": "-1.38992083072662", "maxx": "34.9123306274414", "maxy": "4.23123502731323"}, "keywords": ["Gazetted", "area,", "Uganda."], "metadata_links": [["text/xml", "TC211", "http://geonode.mountbatten.net/geonetwork/srv/en/csw?service=CSW&OutputSchema=http%3A%2F%2Fwww.isotc211.org%2F2005%2Fgmd&request=GetRecordById&version=2.0.2&ElementSetName=full&id=e70b15a2-78e5-11e1-bd8c-d96cbf910a1e"]], "name": "geonode:gaz_ha"}, {"attribution": {"href": "", "title": ""}, "uuid": "c845ddd6-6847-11e1-9da0-8d129640b822", "_local": true, "title": "Uganda school remarks for northern Uganda in January 2011", "_permissions": {"change_permissions": false, "delete": false, "change": false, "view": true}, "abstract": "This layer shows school remarks for northern Uganda in January 2011. The dataset was downloaded from http://cod.humanitarianresponse.info/sites/default/files/uganda_north-uganda_schools_jan2011.zip", "download_links": [["zip", "Zipped Shapefile ", "http://geonode.mountbatten.net/geoserver/wfs?typename=geonode%3Asch_remarks&outputFormat=SHAPE-ZIP&version=1.0.0&request=GetFeature&service=WFS"], ["gml", "GML 2.0 ", "http://geonode.mountbatten.net/geoserver/wfs?typename=geonode%3Asch_remarks&outputFormat=gml2&version=1.0.0&request=GetFeature&service=WFS"], ["gml", "GML 3.1.1 ", "http://geonode.mountbatten.net/geoserver/wfs?typename=geonode%3Asch_remarks&outputFormat=text%2Fxml%3B+subtype%3Dgml%2F3.1.1&version=1.0.0&request=GetFeature&service=WFS"], ["csv", "CSV ", "http://geonode.mountbatten.net/geoserver/wfs?typename=geonode%3Asch_remarks&outputFormat=csv&version=1.0.0&request=GetFeature&service=WFS"], ["excel", "Excel ", "http://geonode.mountbatten.net/geoserver/wfs?typename=geonode%3Asch_remarks&outputFormat=excel&version=1.0.0&request=GetFeature&service=WFS"], ["json", "GeoJSON ", "http://geonode.mountbatten.net/geoserver/wfs?typename=geonode%3Asch_remarks&outputFormat=json&version=1.0.0&request=GetFeature&service=WFS"], ["jpg", "JPEG ", "http://geonode.mountbatten.net/geoserver/wms?layers=geonode%3Asch_remarks&width=636&bbox=28.509%2C-1.804%2C34.996%2C3.805&service=WMS&format=image%2Fjpeg&srs=EPSG%3A4326&request=GetMap&height=550"], ["pdf", "PDF ", "http://geonode.mountbatten.net/geoserver/wms?layers=geonode%3Asch_remarks&width=636&bbox=28.509%2C-1.804%2C34.996%2C3.805&service=WMS&format=application%2Fpdf&srs=EPSG%3A4326&request=GetMap&height=550"], ["png", "PNG ", "http://geonode.mountbatten.net/geoserver/wms?layers=geonode%3Asch_remarks&width=636&bbox=28.509%2C-1.804%2C34.996%2C3.805&service=WMS&format=image%2Fpng&srs=EPSG%3A4326&request=GetMap&height=550"], ["KML", "KML ", "http://geonode.mountbatten.net/geoserver/wms/kml?layers=geonode%3Asch_remarks&mode=download"], ["KML", "View in Google Earth ", "http://geonode.mountbatten.net/geoserver/wms/kml?layers=geonode%3Asch_remarks&mode=refresh"]], "detail": "http://geonode.mountbatten.net/data/geonode:sch_remarks", "bbox": {"minx": "28.509", "miny": "-1.804", "maxx": "34.996", "maxy": "3.805"}, "keywords": ["School,", "Northern", "Uganda"], "metadata_links": [["text/xml", "TC211", "http://geonode.mountbatten.net/geonetwork/srv/en/csw?service=CSW&OutputSchema=http%3A%2F%2Fwww.isotc211.org%2F2005%2Fgmd&request=GetRecordById&version=2.0.2&ElementSetName=full&id=c845ddd6-6847-11e1-9da0-8d129640b822"]], "name": "geonode:sch_remarks"}, {"attribution": {"href": "", "title": ""}, "uuid": "c656ba9e-6e88-11e1-bd33-eb60863377e3", "_local": true, "title": "Uganda districts administrative boundaries in 2010", "_permissions": {"change_permissions": false, "delete": false, "change": false, "view": true}, "abstract": "The layer shows Uganda district boundary based on 2010 data provided by Ugandan Bureau of Statistics (UBOS), Government of Uganda. The dataset was downloaded from http://cod.humanitarianresponse.info/sites/default/files/uganda_district2010.zip", "download_links": [["zip", "Zipped Shapefile ", "http://geonode.mountbatten.net/geoserver/wfs?typename=geonode%3Auganda_districts_2010&outputFormat=SHAPE-ZIP&version=1.0.0&request=GetFeature&service=WFS"], ["gml", "GML 2.0 ", "http://geonode.mountbatten.net/geoserver/wfs?typename=geonode%3Auganda_districts_2010&outputFormat=gml2&version=1.0.0&request=GetFeature&service=WFS"], ["gml", "GML 3.1.1 ", "http://geonode.mountbatten.net/geoserver/wfs?typename=geonode%3Auganda_districts_2010&outputFormat=text%2Fxml%3B+subtype%3Dgml%2F3.1.1&version=1.0.0&request=GetFeature&service=WFS"], ["csv", "CSV ", "http://geonode.mountbatten.net/geoserver/wfs?typename=geonode%3Auganda_districts_2010&outputFormat=csv&version=1.0.0&request=GetFeature&service=WFS"], ["excel", "Excel ", "http://geonode.mountbatten.net/geoserver/wfs?typename=geonode%3Auganda_districts_2010&outputFormat=excel&version=1.0.0&request=GetFeature&service=WFS"], ["json", "GeoJSON ", "http://geonode.mountbatten.net/geoserver/wfs?typename=geonode%3Auganda_districts_2010&outputFormat=json&version=1.0.0&request=GetFeature&service=WFS"], ["jpg", "JPEG ", "http://geonode.mountbatten.net/geoserver/wms?layers=geonode%3Auganda_districts_2010&width=522&bbox=29.5727405548096%2C-1.47879362106323%2C35.0003089904785%2C4.23407697677612&service=WMS&format=image%2Fjpeg&srs=EPSG%3A4326&request=GetMap&height=550"], ["pdf", "PDF ", "http://geonode.mountbatten.net/geoserver/wms?layers=geonode%3Auganda_districts_2010&width=522&bbox=29.5727405548096%2C-1.47879362106323%2C35.0003089904785%2C4.23407697677612&service=WMS&format=application%2Fpdf&srs=EPSG%3A4326&request=GetMap&height=550"], ["png", "PNG ", "http://geonode.mountbatten.net/geoserver/wms?layers=geonode%3Auganda_districts_2010&width=522&bbox=29.5727405548096%2C-1.47879362106323%2C35.0003089904785%2C4.23407697677612&service=WMS&format=image%2Fpng&srs=EPSG%3A4326&request=GetMap&height=550"], ["KML", "KML ", "http://geonode.mountbatten.net/geoserver/wms/kml?layers=geonode%3Auganda_districts_2010&mode=download"], ["KML", "View in Google Earth ", "http://geonode.mountbatten.net/geoserver/wms/kml?layers=geonode%3Auganda_districts_2010&mode=refresh"]], "detail": "http://geonode.mountbatten.net/data/geonode:uganda_districts_2010", "bbox": {"minx": "29.5727405548096", "miny": "-1.47879362106323", "maxx": "35.0003089904785", "maxy": "4.23407697677612"}, "keywords": ["District"], "metadata_links": [["text/xml", "TC211", "http://geonode.mountbatten.net/geonetwork/srv/en/csw?service=CSW&OutputSchema=http%3A%2F%2Fwww.isotc211.org%2F2005%2Fgmd&request=GetRecordById&version=2.0.2&ElementSetName=full&id=c656ba9e-6e88-11e1-bd33-eb60863377e3"]], "name": "geonode:uganda_districts_2010"}, {"attribution": {"href": "", "title": ""}, "uuid": "612ad502-4e61-11e1-8437-310912c91e4c", "_local": true, "title": "Uganda total area of papyrus in subcounty(hectares) 2002", "_permissions": {"change_permissions": false, "delete": false, "change": false, "view": false}, "abstract": "This layer shows theoretical revenue from papyrus harvest in 2002. This dataset was downloaded from http://docs.wri.org/Ug_Theoretical-revenue-from-papyrus-harvest.zip", "download_links": [["zip", "Zipped Shapefile ", "http://geonode.mountbatten.net/geoserver/wfs?typename=geonode%3APapyrus_ha&outputFormat=SHAPE-ZIP&version=1.0.0&request=GetFeature&service=WFS"], ["gml", "GML 2.0 ", "http://geonode.mountbatten.net/geoserver/wfs?typename=geonode%3APapyrus_ha&outputFormat=gml2&version=1.0.0&request=GetFeature&service=WFS"], ["gml", "GML 3.1.1 ", "http://geonode.mountbatten.net/geoserver/wfs?typename=geonode%3APapyrus_ha&outputFormat=text%2Fxml%3B+subtype%3Dgml%2F3.1.1&version=1.0.0&request=GetFeature&service=WFS"], ["csv", "CSV ", "http://geonode.mountbatten.net/geoserver/wfs?typename=geonode%3APapyrus_ha&outputFormat=csv&version=1.0.0&request=GetFeature&service=WFS"], ["excel", "Excel ", "http://geonode.mountbatten.net/geoserver/wfs?typename=geonode%3APapyrus_ha&outputFormat=excel&version=1.0.0&request=GetFeature&service=WFS"], ["json", "GeoJSON ", "http://geonode.mountbatten.net/geoserver/wfs?typename=geonode%3APapyrus_ha&outputFormat=json&version=1.0.0&request=GetFeature&service=WFS"], ["jpg", "JPEG ", "http://geonode.mountbatten.net/geoserver/wms?layers=geonode%3APapyrus_ha&width=522&bbox=29.5727405548096%2C-1.47879362106323%2C35.0003089904785%2C4.23407697677612&service=WMS&format=image%2Fjpeg&srs=EPSG%3A4326&request=GetMap&height=550"], ["pdf", "PDF ", "http://geonode.mountbatten.net/geoserver/wms?layers=geonode%3APapyrus_ha&width=522&bbox=29.5727405548096%2C-1.47879362106323%2C35.0003089904785%2C4.23407697677612&service=WMS&format=application%2Fpdf&srs=EPSG%3A4326&request=GetMap&height=550"], ["png", "PNG ", "http://geonode.mountbatten.net/geoserver/wms?layers=geonode%3APapyrus_ha&width=522&bbox=29.5727405548096%2C-1.47879362106323%2C35.0003089904785%2C4.23407697677612&service=WMS&format=image%2Fpng&srs=EPSG%3A4326&request=GetMap&height=550"], ["KML", "KML ", "http://geonode.mountbatten.net/geoserver/wms/kml?layers=geonode%3APapyrus_ha&mode=download"], ["KML", "View in Google Earth ", "http://geonode.mountbatten.net/geoserver/wms/kml?layers=geonode%3APapyrus_ha&mode=refresh"]], "detail": "http://geonode.mountbatten.net/data/geonode:Papyrus_ha", "bbox": {"minx": "29.5727405548096", "miny": "-1.47879362106323", "maxx": "35.0003089904785", "maxy": "4.23407697677612"}, "keywords": ["Wet", "land,", "Poverty"], "metadata_links": [["text/xml", "TC211", "http://geonode.mountbatten.net/geonetwork/srv/en/csw?service=CSW&OutputSchema=http%3A%2F%2Fwww.isotc211.org%2F2005%2Fgmd&request=GetRecordById&version=2.0.2&ElementSetName=full&id=612ad502-4e61-11e1-8437-310912c91e4c"]], "name": "geonode:Papyrus_ha"}, {"attribution": {"href": "", "title": ""}, "uuid": "170b7510-386f-11e1-9b70-f19eaeca0398", "_local": true, "title": "Uganda number of households without access to soap 2005", "_permissions": {"change_permissions": false, "delete": false, "change": false, "view": true}, "abstract": "The layer shows environmental health census by sub county in 2005. The dataset was downloaded from http://docs.wri.org/Ug_Environmental-health_Census2002.zip", "download_links": [["zip", "Zipped Shapefile ", "http://geonode.mountbatten.net/geoserver/wfs?typename=geonode%3Anosoap_hh_1&outputFormat=SHAPE-ZIP&version=1.0.0&request=GetFeature&service=WFS"], ["gml", "GML 2.0 ", "http://geonode.mountbatten.net/geoserver/wfs?typename=geonode%3Anosoap_hh_1&outputFormat=gml2&version=1.0.0&request=GetFeature&service=WFS"], ["gml", "GML 3.1.1 ", "http://geonode.mountbatten.net/geoserver/wfs?typename=geonode%3Anosoap_hh_1&outputFormat=text%2Fxml%3B+subtype%3Dgml%2F3.1.1&version=1.0.0&request=GetFeature&service=WFS"], ["csv", "CSV ", "http://geonode.mountbatten.net/geoserver/wfs?typename=geonode%3Anosoap_hh_1&outputFormat=csv&version=1.0.0&request=GetFeature&service=WFS"], ["excel", "Excel ", "http://geonode.mountbatten.net/geoserver/wfs?typename=geonode%3Anosoap_hh_1&outputFormat=excel&version=1.0.0&request=GetFeature&service=WFS"], ["json", "GeoJSON ", "http://geonode.mountbatten.net/geoserver/wfs?typename=geonode%3Anosoap_hh_1&outputFormat=json&version=1.0.0&request=GetFeature&service=WFS"], ["jpg", "JPEG ", "http://geonode.mountbatten.net/geoserver/wms?layers=geonode%3Anosoap_hh_1&width=522&bbox=29.5727405548096%2C-1.47879362106323%2C35.0003089904785%2C4.23407697677612&service=WMS&format=image%2Fjpeg&srs=EPSG%3A4326&request=GetMap&height=550"], ["pdf", "PDF ", "http://geonode.mountbatten.net/geoserver/wms?layers=geonode%3Anosoap_hh_1&width=522&bbox=29.5727405548096%2C-1.47879362106323%2C35.0003089904785%2C4.23407697677612&service=WMS&format=application%2Fpdf&srs=EPSG%3A4326&request=GetMap&height=550"], ["png", "PNG ", "http://geonode.mountbatten.net/geoserver/wms?layers=geonode%3Anosoap_hh_1&width=522&bbox=29.5727405548096%2C-1.47879362106323%2C35.0003089904785%2C4.23407697677612&service=WMS&format=image%2Fpng&srs=EPSG%3A4326&request=GetMap&height=550"], ["KML", "KML ", "http://geonode.mountbatten.net/geoserver/wms/kml?layers=geonode%3Anosoap_hh_1&mode=download"], ["KML", "View in Google Earth ", "http://geonode.mountbatten.net/geoserver/wms/kml?layers=geonode%3Anosoap_hh_1&mode=refresh"]], "detail": "http://geonode.mountbatten.net/data/geonode:nosoap_hh_1", "bbox": {"minx": "29.5727405548096", "miny": "-1.47879362106323", "maxx": "35.0003089904785", "maxy": "4.23407697677612"}, "keywords": ["Environmental", "health,", "Uganda"], "metadata_links": [["text/xml", "TC211", "http://geonode.mountbatten.net/geonetwork/srv/en/csw?service=CSW&OutputSchema=http%3A%2F%2Fwww.isotc211.org%2F2005%2Fgmd&request=GetRecordById&version=2.0.2&ElementSetName=full&id=170b7510-386f-11e1-9b70-f19eaeca0398"]], "name": "geonode:nosoap_hh_1"}, {"attribution": {"href": "", "title": ""}, "uuid": "6786e966-685d-11e1-b5ae-8d129640b822", "_local": true, "title": "Uganda health center type in January 2011", "_permissions": {"change_permissions": false, "delete": false, "change": false, "view": true}, "abstract": "The layer shows health center type in northern Uganda in January 2011. This dataset was downloaded from http://cod.humanitarianresponse.info/sites/default/files/uganda_north-uganda_healthcentres_jan2011.zip", "download_links": [["zip", "Zipped Shapefile ", "http://geonode.mountbatten.net/geoserver/wfs?typename=geonode%3Ahc_type&outputFormat=SHAPE-ZIP&version=1.0.0&request=GetFeature&service=WFS"], ["gml", "GML 2.0 ", "http://geonode.mountbatten.net/geoserver/wfs?typename=geonode%3Ahc_type&outputFormat=gml2&version=1.0.0&request=GetFeature&service=WFS"], ["gml", "GML 3.1.1 ", "http://geonode.mountbatten.net/geoserver/wfs?typename=geonode%3Ahc_type&outputFormat=text%2Fxml%3B+subtype%3Dgml%2F3.1.1&version=1.0.0&request=GetFeature&service=WFS"], ["csv", "CSV ", "http://geonode.mountbatten.net/geoserver/wfs?typename=geonode%3Ahc_type&outputFormat=csv&version=1.0.0&request=GetFeature&service=WFS"], ["excel", "Excel ", "http://geonode.mountbatten.net/geoserver/wfs?typename=geonode%3Ahc_type&outputFormat=excel&version=1.0.0&request=GetFeature&service=WFS"], ["json", "GeoJSON ", "http://geonode.mountbatten.net/geoserver/wfs?typename=geonode%3Ahc_type&outputFormat=json&version=1.0.0&request=GetFeature&service=WFS"], ["jpg", "JPEG ", "http://geonode.mountbatten.net/geoserver/wms?layers=geonode%3Ahc_type&width=635&bbox=28.5090389251709%2C-1.80386745929718%2C34.9956245422363%2C3.80832886695862&service=WMS&format=image%2Fjpeg&srs=EPSG%3A4326&request=GetMap&height=550"], ["pdf", "PDF ", "http://geonode.mountbatten.net/geoserver/wms?layers=geonode%3Ahc_type&width=635&bbox=28.5090389251709%2C-1.80386745929718%2C34.9956245422363%2C3.80832886695862&service=WMS&format=application%2Fpdf&srs=EPSG%3A4326&request=GetMap&height=550"], ["png", "PNG ", "http://geonode.mountbatten.net/geoserver/wms?layers=geonode%3Ahc_type&width=635&bbox=28.5090389251709%2C-1.80386745929718%2C34.9956245422363%2C3.80832886695862&service=WMS&format=image%2Fpng&srs=EPSG%3A4326&request=GetMap&height=550"], ["KML", "KML ", "http://geonode.mountbatten.net/geoserver/wms/kml?layers=geonode%3Ahc_type&mode=download"], ["KML", "View in Google Earth ", "http://geonode.mountbatten.net/geoserver/wms/kml?layers=geonode%3Ahc_type&mode=refresh"]], "detail": "http://geonode.mountbatten.net/data/geonode:hc_type", "bbox": {"minx": "28.5090389251709", "miny": "-1.80386745929718", "maxx": "34.9956245422363", "maxy": "3.80832886695862"}, "keywords": ["Health", "Center"], "metadata_links": [["text/xml", "TC211", "http://geonode.mountbatten.net/geonetwork/srv/en/csw?service=CSW&OutputSchema=http%3A%2F%2Fwww.isotc211.org%2F2005%2Fgmd&request=GetRecordById&version=2.0.2&ElementSetName=full&id=6786e966-685d-11e1-b5ae-8d129640b822"]], "name": "geonode:hc_type"}, {"attribution": {"href": "", "title": ""}, "uuid": "d05734c6-685f-11e1-bbc4-8d129640b822", "_local": true, "title": "Uganda update status of health centers in northern Uganda in January 2011", "_permissions": {"change_permissions": false, "delete": false, "change": false, "view": true}, "abstract": "This layer shows the update status of health centers in northern Uganda in January 2011. This dataset was downloaded from http://cod.humanitarianresponse.info/sites/default/files/uganda_north-uganda_healthcentres_jan2011.zip", "download_links": [["zip", "Zipped Shapefile ", "http://geonode.mountbatten.net/geoserver/wfs?typename=geonode%3Ahc_update&outputFormat=SHAPE-ZIP&version=1.0.0&request=GetFeature&service=WFS"], ["gml", "GML 2.0 ", "http://geonode.mountbatten.net/geoserver/wfs?typename=geonode%3Ahc_update&outputFormat=gml2&version=1.0.0&request=GetFeature&service=WFS"], ["gml", "GML 3.1.1 ", "http://geonode.mountbatten.net/geoserver/wfs?typename=geonode%3Ahc_update&outputFormat=text%2Fxml%3B+subtype%3Dgml%2F3.1.1&version=1.0.0&request=GetFeature&service=WFS"], ["csv", "CSV ", "http://geonode.mountbatten.net/geoserver/wfs?typename=geonode%3Ahc_update&outputFormat=csv&version=1.0.0&request=GetFeature&service=WFS"], ["excel", "Excel ", "http://geonode.mountbatten.net/geoserver/wfs?typename=geonode%3Ahc_update&outputFormat=excel&version=1.0.0&request=GetFeature&service=WFS"], ["json", "GeoJSON ", "http://geonode.mountbatten.net/geoserver/wfs?typename=geonode%3Ahc_update&outputFormat=json&version=1.0.0&request=GetFeature&service=WFS"], ["jpg", "JPEG ", "http://geonode.mountbatten.net/geoserver/wms?layers=geonode%3Ahc_update&width=635&bbox=28.5090389251709%2C-1.80386745929718%2C34.9956245422363%2C3.80832886695862&service=WMS&format=image%2Fjpeg&srs=EPSG%3A4326&request=GetMap&height=550"], ["pdf", "PDF ", "http://geonode.mountbatten.net/geoserver/wms?layers=geonode%3Ahc_update&width=635&bbox=28.5090389251709%2C-1.80386745929718%2C34.9956245422363%2C3.80832886695862&service=WMS&format=application%2Fpdf&srs=EPSG%3A4326&request=GetMap&height=550"], ["png", "PNG ", "http://geonode.mountbatten.net/geoserver/wms?layers=geonode%3Ahc_update&width=635&bbox=28.5090389251709%2C-1.80386745929718%2C34.9956245422363%2C3.80832886695862&service=WMS&format=image%2Fpng&srs=EPSG%3A4326&request=GetMap&height=550"], ["KML", "KML ", "http://geonode.mountbatten.net/geoserver/wms/kml?layers=geonode%3Ahc_update&mode=download"], ["KML", "View in Google Earth ", "http://geonode.mountbatten.net/geoserver/wms/kml?layers=geonode%3Ahc_update&mode=refresh"]], "detail": "http://geonode.mountbatten.net/data/geonode:hc_update", "bbox": {"minx": "28.5090389251709", "miny": "-1.80386745929718", "maxx": "34.9956245422363", "maxy": "3.80832886695862"}, "keywords": ["Health", "Center"], "metadata_links": [["text/xml", "TC211", "http://geonode.mountbatten.net/geonetwork/srv/en/csw?service=CSW&OutputSchema=http%3A%2F%2Fwww.isotc211.org%2F2005%2Fgmd&request=GetRecordById&version=2.0.2&ElementSetName=full&id=d05734c6-685f-11e1-bbc4-8d129640b822"]], "name": "geonode:hc_update"}, {"attribution": {"href": "", "title": ""}, "uuid": "2a4f1fbc-685f-11e1-9a54-ad1cf8d71d6a", "_local": true, "title": "Uganda health center status for northern Uganda  in January 2011", "_permissions": {"change_permissions": false, "delete": false, "change": false, "view": true}, "abstract": "This layer shows the status of health centers in northern Uganda in January 2011. The dataset was downloaded from http://cod.humanitarianresponse.info/sites/default/files/uganda_north-uganda_healthcentres_jan2011.zip", "download_links": [["zip", "Zipped Shapefile ", "http://geonode.mountbatten.net/geoserver/wfs?typename=geonode%3Ahc_status&outputFormat=SHAPE-ZIP&version=1.0.0&request=GetFeature&service=WFS"], ["gml", "GML 2.0 ", "http://geonode.mountbatten.net/geoserver/wfs?typename=geonode%3Ahc_status&outputFormat=gml2&version=1.0.0&request=GetFeature&service=WFS"], ["gml", "GML 3.1.1 ", "http://geonode.mountbatten.net/geoserver/wfs?typename=geonode%3Ahc_status&outputFormat=text%2Fxml%3B+subtype%3Dgml%2F3.1.1&version=1.0.0&request=GetFeature&service=WFS"], ["csv", "CSV ", "http://geonode.mountbatten.net/geoserver/wfs?typename=geonode%3Ahc_status&outputFormat=csv&version=1.0.0&request=GetFeature&service=WFS"], ["excel", "Excel ", "http://geonode.mountbatten.net/geoserver/wfs?typename=geonode%3Ahc_status&outputFormat=excel&version=1.0.0&request=GetFeature&service=WFS"], ["json", "GeoJSON ", "http://geonode.mountbatten.net/geoserver/wfs?typename=geonode%3Ahc_status&outputFormat=json&version=1.0.0&request=GetFeature&service=WFS"], ["jpg", "JPEG ", "http://geonode.mountbatten.net/geoserver/wms?layers=geonode%3Ahc_status&width=635&bbox=28.5090389251709%2C-1.80386745929718%2C34.9956245422363%2C3.80832886695862&service=WMS&format=image%2Fjpeg&srs=EPSG%3A4326&request=GetMap&height=550"], ["pdf", "PDF ", "http://geonode.mountbatten.net/geoserver/wms?layers=geonode%3Ahc_status&width=635&bbox=28.5090389251709%2C-1.80386745929718%2C34.9956245422363%2C3.80832886695862&service=WMS&format=application%2Fpdf&srs=EPSG%3A4326&request=GetMap&height=550"], ["png", "PNG ", "http://geonode.mountbatten.net/geoserver/wms?layers=geonode%3Ahc_status&width=635&bbox=28.5090389251709%2C-1.80386745929718%2C34.9956245422363%2C3.80832886695862&service=WMS&format=image%2Fpng&srs=EPSG%3A4326&request=GetMap&height=550"], ["KML", "KML ", "http://geonode.mountbatten.net/geoserver/wms/kml?layers=geonode%3Ahc_status&mode=download"], ["KML", "View in Google Earth ", "http://geonode.mountbatten.net/geoserver/wms/kml?layers=geonode%3Ahc_status&mode=refresh"]], "detail": "http://geonode.mountbatten.net/data/geonode:hc_status", "bbox": {"minx": "28.5090389251709", "miny": "-1.80386745929718", "maxx": "34.9956245422363", "maxy": "3.80832886695862"}, "keywords": ["Health", "centre,", "Northern", "Uganda"], "metadata_links": [["text/xml", "TC211", "http://geonode.mountbatten.net/geonetwork/srv/en/csw?service=CSW&OutputSchema=http%3A%2F%2Fwww.isotc211.org%2F2005%2Fgmd&request=GetRecordById&version=2.0.2&ElementSetName=full&id=2a4f1fbc-685f-11e1-9a54-ad1cf8d71d6a"]], "name": "geonode:hc_status"}, {"attribution": {"href": "", "title": ""}, "uuid": "d813cd18-8fa7-11e1-9df5-d7adece22238", "_local": true, "title": "Uganda percentage of displaced persons in transit in 2009", "_permissions": {"change_permissions": false, "delete": false, "change": false, "view": true}, "abstract": "This layer shows the percentage of displaced persons in transit. The dataset is from the Information Management Unit of UNOCHA, Uganda Country Office.", "download_links": [["zip", "Zipped Shapefile ", "http://geonode.mountbatten.net/geoserver/wfs?typename=geonode%3Aperc_Trans2009&outputFormat=SHAPE-ZIP&version=1.0.0&request=GetFeature&service=WFS"], ["gml", "GML 2.0 ", "http://geonode.mountbatten.net/geoserver/wfs?typename=geonode%3Aperc_Trans2009&outputFormat=gml2&version=1.0.0&request=GetFeature&service=WFS"], ["gml", "GML 3.1.1 ", "http://geonode.mountbatten.net/geoserver/wfs?typename=geonode%3Aperc_Trans2009&outputFormat=text%2Fxml%3B+subtype%3Dgml%2F3.1.1&version=1.0.0&request=GetFeature&service=WFS"], ["csv", "CSV ", "http://geonode.mountbatten.net/geoserver/wfs?typename=geonode%3Aperc_Trans2009&outputFormat=csv&version=1.0.0&request=GetFeature&service=WFS"], ["excel", "Excel ", "http://geonode.mountbatten.net/geoserver/wfs?typename=geonode%3Aperc_Trans2009&outputFormat=excel&version=1.0.0&request=GetFeature&service=WFS"], ["json", "GeoJSON ", "http://geonode.mountbatten.net/geoserver/wfs?typename=geonode%3Aperc_Trans2009&outputFormat=json&version=1.0.0&request=GetFeature&service=WFS"], ["jpg", "JPEG ", "http://geonode.mountbatten.net/geoserver/wms?layers=geonode%3Aperc_Trans2009&width=790&bbox=31.3358135223389%2C2.21946692466736%2C33.7417106628418%2C3.89361381530762&service=WMS&format=image%2Fjpeg&srs=EPSG%3A4326&request=GetMap&height=550"], ["pdf", "PDF ", "http://geonode.mountbatten.net/geoserver/wms?layers=geonode%3Aperc_Trans2009&width=790&bbox=31.3358135223389%2C2.21946692466736%2C33.7417106628418%2C3.89361381530762&service=WMS&format=application%2Fpdf&srs=EPSG%3A4326&request=GetMap&height=550"], ["png", "PNG ", "http://geonode.mountbatten.net/geoserver/wms?layers=geonode%3Aperc_Trans2009&width=790&bbox=31.3358135223389%2C2.21946692466736%2C33.7417106628418%2C3.89361381530762&service=WMS&format=image%2Fpng&srs=EPSG%3A4326&request=GetMap&height=550"], ["KML", "KML ", "http://geonode.mountbatten.net/geoserver/wms/kml?layers=geonode%3Aperc_Trans2009&mode=download"], ["KML", "View in Google Earth ", "http://geonode.mountbatten.net/geoserver/wms/kml?layers=geonode%3Aperc_Trans2009&mode=refresh"]], "detail": "http://geonode.mountbatten.net/data/geonode:perc_Trans2009", "bbox": {"minx": "31.3358135223389", "miny": "2.21946692466736", "maxx": "33.7417106628418", "maxy": "3.89361381530762"}, "keywords": ["IDP", "camp"], "metadata_links": [["text/xml", "TC211", "http://geonode.mountbatten.net/geonetwork/srv/en/csw?service=CSW&OutputSchema=http%3A%2F%2Fwww.isotc211.org%2F2005%2Fgmd&request=GetRecordById&version=2.0.2&ElementSetName=full&id=d813cd18-8fa7-11e1-9df5-d7adece22238"]], "name": "geonode:perc_Trans2009"}, {"attribution": {"href": "", "title": ""}, "uuid": "d70a1a76-4e75-11e1-acd3-310912c91e4c", "_local": true, "title": "Uganda theoretical revenue from papyrus harvest in millions of ugx in 2001", "_permissions": {"change_permissions": false, "delete": false, "change": false, "view": true}, "abstract": "The layer shows the theoretical revenue from papyrus harvest in millions of Uganda shillings in 2001.\nThe assumption is that, one bundle of papyrus sells for Uganda shillings 500.\n\nThe dataset was downloaded from http://docs.wri.org/Ug_Theoretical-revenue-from-papyrus-harvest.zip", "download_links": [["zip", "Zipped Shapefile ", "http://geonode.mountbatten.net/geoserver/wfs?typename=geonode%3Apapmill&outputFormat=SHAPE-ZIP&version=1.0.0&request=GetFeature&service=WFS"], ["gml", "GML 2.0 ", "http://geonode.mountbatten.net/geoserver/wfs?typename=geonode%3Apapmill&outputFormat=gml2&version=1.0.0&request=GetFeature&service=WFS"], ["gml", "GML 3.1.1 ", "http://geonode.mountbatten.net/geoserver/wfs?typename=geonode%3Apapmill&outputFormat=text%2Fxml%3B+subtype%3Dgml%2F3.1.1&version=1.0.0&request=GetFeature&service=WFS"], ["csv", "CSV ", "http://geonode.mountbatten.net/geoserver/wfs?typename=geonode%3Apapmill&outputFormat=csv&version=1.0.0&request=GetFeature&service=WFS"], ["excel", "Excel ", "http://geonode.mountbatten.net/geoserver/wfs?typename=geonode%3Apapmill&outputFormat=excel&version=1.0.0&request=GetFeature&service=WFS"], ["json", "GeoJSON ", "http://geonode.mountbatten.net/geoserver/wfs?typename=geonode%3Apapmill&outputFormat=json&version=1.0.0&request=GetFeature&service=WFS"], ["jpg", "JPEG ", "http://geonode.mountbatten.net/geoserver/wms?layers=geonode%3Apapmill&width=522&bbox=29.5727405548096%2C-1.47879362106323%2C35.0003089904785%2C4.23407697677612&service=WMS&format=image%2Fjpeg&srs=EPSG%3A4326&request=GetMap&height=550"], ["pdf", "PDF ", "http://geonode.mountbatten.net/geoserver/wms?layers=geonode%3Apapmill&width=522&bbox=29.5727405548096%2C-1.47879362106323%2C35.0003089904785%2C4.23407697677612&service=WMS&format=application%2Fpdf&srs=EPSG%3A4326&request=GetMap&height=550"], ["png", "PNG ", "http://geonode.mountbatten.net/geoserver/wms?layers=geonode%3Apapmill&width=522&bbox=29.5727405548096%2C-1.47879362106323%2C35.0003089904785%2C4.23407697677612&service=WMS&format=image%2Fpng&srs=EPSG%3A4326&request=GetMap&height=550"], ["KML", "KML ", "http://geonode.mountbatten.net/geoserver/wms/kml?layers=geonode%3Apapmill&mode=download"], ["KML", "View in Google Earth ", "http://geonode.mountbatten.net/geoserver/wms/kml?layers=geonode%3Apapmill&mode=refresh"]], "detail": "http://geonode.mountbatten.net/data/geonode:papmill", "bbox": {"minx": "29.5727405548096", "miny": "-1.47879362106323", "maxx": "35.0003089904785", "maxy": "4.23407697677612"}, "keywords": ["Revenue,", "Wetland"], "metadata_links": [["text/xml", "TC211", "http://geonode.mountbatten.net/geonetwork/srv/en/csw?service=CSW&OutputSchema=http%3A%2F%2Fwww.isotc211.org%2F2005%2Fgmd&request=GetRecordById&version=2.0.2&ElementSetName=full&id=d70a1a76-4e75-11e1-acd3-310912c91e4c"]], "name": "geonode:papmill"}, {"attribution": {"href": "", "title": ""}, "uuid": "f9fccdb8-682d-11e1-ab9e-ad1cf8d71d6a", "_local": true, "title": "Uganda school ownership in northern Uganda in January 2011", "_permissions": {"change_permissions": false, "delete": false, "change": false, "view": true}, "abstract": "The layer shows school ownership in northern Uganda in 2011. The dataset was downloaded from http://cod.humanitarianresponse.info/sites/default/files/uganda_north-uganda_schools_jan2011.zip", "download_links": [["zip", "Zipped Shapefile ", "http://geonode.mountbatten.net/geoserver/wfs?typename=geonode%3Asch_ownership&outputFormat=SHAPE-ZIP&version=1.0.0&request=GetFeature&service=WFS"], ["gml", "GML 2.0 ", "http://geonode.mountbatten.net/geoserver/wfs?typename=geonode%3Asch_ownership&outputFormat=gml2&version=1.0.0&request=GetFeature&service=WFS"], ["gml", "GML 3.1.1 ", "http://geonode.mountbatten.net/geoserver/wfs?typename=geonode%3Asch_ownership&outputFormat=text%2Fxml%3B+subtype%3Dgml%2F3.1.1&version=1.0.0&request=GetFeature&service=WFS"], ["csv", "CSV ", "http://geonode.mountbatten.net/geoserver/wfs?typename=geonode%3Asch_ownership&outputFormat=csv&version=1.0.0&request=GetFeature&service=WFS"], ["excel", "Excel ", "http://geonode.mountbatten.net/geoserver/wfs?typename=geonode%3Asch_ownership&outputFormat=excel&version=1.0.0&request=GetFeature&service=WFS"], ["json", "GeoJSON ", "http://geonode.mountbatten.net/geoserver/wfs?typename=geonode%3Asch_ownership&outputFormat=json&version=1.0.0&request=GetFeature&service=WFS"], ["jpg", "JPEG ", "http://geonode.mountbatten.net/geoserver/wms?layers=geonode%3Asch_ownership&width=636&bbox=28.5090389251709%2C-1.80386745929718%2C34.9960136413574%2C3.80488014221191&service=WMS&format=image%2Fjpeg&srs=EPSG%3A4326&request=GetMap&height=550"], ["pdf", "PDF ", "http://geonode.mountbatten.net/geoserver/wms?layers=geonode%3Asch_ownership&width=636&bbox=28.5090389251709%2C-1.80386745929718%2C34.9960136413574%2C3.80488014221191&service=WMS&format=application%2Fpdf&srs=EPSG%3A4326&request=GetMap&height=550"], ["png", "PNG ", "http://geonode.mountbatten.net/geoserver/wms?layers=geonode%3Asch_ownership&width=636&bbox=28.5090389251709%2C-1.80386745929718%2C34.9960136413574%2C3.80488014221191&service=WMS&format=image%2Fpng&srs=EPSG%3A4326&request=GetMap&height=550"], ["KML", "KML ", "http://geonode.mountbatten.net/geoserver/wms/kml?layers=geonode%3Asch_ownership&mode=download"], ["KML", "View in Google Earth ", "http://geonode.mountbatten.net/geoserver/wms/kml?layers=geonode%3Asch_ownership&mode=refresh"]], "detail": "http://geonode.mountbatten.net/data/geonode:sch_ownership", "bbox": {"minx": "28.5090389251709", "miny": "-1.80386745929718", "maxx": "34.9960136413574", "maxy": "3.80488014221191"}, "keywords": ["School"], "metadata_links": [["text/xml", "TC211", "http://geonode.mountbatten.net/geonetwork/srv/en/csw?service=CSW&OutputSchema=http%3A%2F%2Fwww.isotc211.org%2F2005%2Fgmd&request=GetRecordById&version=2.0.2&ElementSetName=full&id=f9fccdb8-682d-11e1-ab9e-ad1cf8d71d6a"]], "name": "geonode:sch_ownership"}, {"attribution": {"href": "", "title": ""}, "uuid": "0e464900-4db4-11e1-be59-e1290484c0b6", "_local": true, "title": "Uganda fraction of households with open water source for drinking in 2002", "_permissions": {"change_permissions": false, "delete": false, "change": false, "view": true}, "abstract": "This layer shows the fraction of households that use an open water source as drinking water in 2002. The dataset was downloaded from http://docs.wri.org/Ug_Environmental-health_Census2002.zip", "download_links": [["zip", "Zipped Shapefile ", "http://geonode.mountbatten.net/geoserver/wfs?typename=geonode%3Aopen_hh2&outputFormat=SHAPE-ZIP&version=1.0.0&request=GetFeature&service=WFS"], ["gml", "GML 2.0 ", "http://geonode.mountbatten.net/geoserver/wfs?typename=geonode%3Aopen_hh2&outputFormat=gml2&version=1.0.0&request=GetFeature&service=WFS"], ["gml", "GML 3.1.1 ", "http://geonode.mountbatten.net/geoserver/wfs?typename=geonode%3Aopen_hh2&outputFormat=text%2Fxml%3B+subtype%3Dgml%2F3.1.1&version=1.0.0&request=GetFeature&service=WFS"], ["csv", "CSV ", "http://geonode.mountbatten.net/geoserver/wfs?typename=geonode%3Aopen_hh2&outputFormat=csv&version=1.0.0&request=GetFeature&service=WFS"], ["excel", "Excel ", "http://geonode.mountbatten.net/geoserver/wfs?typename=geonode%3Aopen_hh2&outputFormat=excel&version=1.0.0&request=GetFeature&service=WFS"], ["json", "GeoJSON ", "http://geonode.mountbatten.net/geoserver/wfs?typename=geonode%3Aopen_hh2&outputFormat=json&version=1.0.0&request=GetFeature&service=WFS"], ["jpg", "JPEG ", "http://geonode.mountbatten.net/geoserver/wms?layers=geonode%3Aopen_hh2&width=522&bbox=29.5727405548096%2C-1.47879362106323%2C35.0003089904785%2C4.23407697677612&service=WMS&format=image%2Fjpeg&srs=EPSG%3A4326&request=GetMap&height=550"], ["pdf", "PDF ", "http://geonode.mountbatten.net/geoserver/wms?layers=geonode%3Aopen_hh2&width=522&bbox=29.5727405548096%2C-1.47879362106323%2C35.0003089904785%2C4.23407697677612&service=WMS&format=application%2Fpdf&srs=EPSG%3A4326&request=GetMap&height=550"], ["png", "PNG ", "http://geonode.mountbatten.net/geoserver/wms?layers=geonode%3Aopen_hh2&width=522&bbox=29.5727405548096%2C-1.47879362106323%2C35.0003089904785%2C4.23407697677612&service=WMS&format=image%2Fpng&srs=EPSG%3A4326&request=GetMap&height=550"], ["KML", "KML ", "http://geonode.mountbatten.net/geoserver/wms/kml?layers=geonode%3Aopen_hh2&mode=download"], ["KML", "View in Google Earth ", "http://geonode.mountbatten.net/geoserver/wms/kml?layers=geonode%3Aopen_hh2&mode=refresh"]], "detail": "http://geonode.mountbatten.net/data/geonode:open_hh2", "bbox": {"minx": "29.5727405548096", "miny": "-1.47879362106323", "maxx": "35.0003089904785", "maxy": "4.23407697677612"}, "keywords": ["Water"], "metadata_links": [["text/xml", "TC211", "http://geonode.mountbatten.net/geonetwork/srv/en/csw?service=CSW&OutputSchema=http%3A%2F%2Fwww.isotc211.org%2F2005%2Fgmd&request=GetRecordById&version=2.0.2&ElementSetName=full&id=0e464900-4db4-11e1-be59-e1290484c0b6"]], "name": "geonode:open_hh2"}, {"attribution": {"href": "", "title": ""}, "uuid": "dde48324-8f9b-11e1-93e1-8dbb271999c8", "_local": true, "title": "Uganda percentage of population in IDP camps in August 2009", "_permissions": {"change_permissions": false, "delete": false, "change": false, "view": true}, "abstract": "This layer shows the population percentage in IDP camps in 2009 by sub county. This dataset is from the Information Management Unit of UNOCHA, Uganda Country Office in 2010.", "download_links": [["zip", "Zipped Shapefile ", "http://geonode.mountbatten.net/geoserver/wfs?typename=geonode%3Aperct_idp_aug09&outputFormat=SHAPE-ZIP&version=1.0.0&request=GetFeature&service=WFS"], ["gml", "GML 2.0 ", "http://geonode.mountbatten.net/geoserver/wfs?typename=geonode%3Aperct_idp_aug09&outputFormat=gml2&version=1.0.0&request=GetFeature&service=WFS"], ["gml", "GML 3.1.1 ", "http://geonode.mountbatten.net/geoserver/wfs?typename=geonode%3Aperct_idp_aug09&outputFormat=text%2Fxml%3B+subtype%3Dgml%2F3.1.1&version=1.0.0&request=GetFeature&service=WFS"], ["csv", "CSV ", "http://geonode.mountbatten.net/geoserver/wfs?typename=geonode%3Aperct_idp_aug09&outputFormat=csv&version=1.0.0&request=GetFeature&service=WFS"], ["excel", "Excel ", "http://geonode.mountbatten.net/geoserver/wfs?typename=geonode%3Aperct_idp_aug09&outputFormat=excel&version=1.0.0&request=GetFeature&service=WFS"], ["json", "GeoJSON ", "http://geonode.mountbatten.net/geoserver/wfs?typename=geonode%3Aperct_idp_aug09&outputFormat=json&version=1.0.0&request=GetFeature&service=WFS"], ["jpg", "JPEG ", "http://geonode.mountbatten.net/geoserver/wms?layers=geonode%3Aperct_idp_aug09&width=790&bbox=31.3358135223389%2C2.21946692466736%2C33.7417106628418%2C3.89361381530762&service=WMS&format=image%2Fjpeg&srs=EPSG%3A4326&request=GetMap&height=550"], ["pdf", "PDF ", "http://geonode.mountbatten.net/geoserver/wms?layers=geonode%3Aperct_idp_aug09&width=790&bbox=31.3358135223389%2C2.21946692466736%2C33.7417106628418%2C3.89361381530762&service=WMS&format=application%2Fpdf&srs=EPSG%3A4326&request=GetMap&height=550"], ["png", "PNG ", "http://geonode.mountbatten.net/geoserver/wms?layers=geonode%3Aperct_idp_aug09&width=790&bbox=31.3358135223389%2C2.21946692466736%2C33.7417106628418%2C3.89361381530762&service=WMS&format=image%2Fpng&srs=EPSG%3A4326&request=GetMap&height=550"], ["KML", "KML ", "http://geonode.mountbatten.net/geoserver/wms/kml?layers=geonode%3Aperct_idp_aug09&mode=download"], ["KML", "View in Google Earth ", "http://geonode.mountbatten.net/geoserver/wms/kml?layers=geonode%3Aperct_idp_aug09&mode=refresh"]], "detail": "http://geonode.mountbatten.net/data/geonode:perct_idp_aug09", "bbox": {"minx": "31.3358135223389", "miny": "2.21946692466736", "maxx": "33.7417106628418", "maxy": "3.89361381530762"}, "keywords": ["IDP", "camp,", "Population"], "metadata_links": [["text/xml", "TC211", "http://geonode.mountbatten.net/geonetwork/srv/en/csw?service=CSW&OutputSchema=http%3A%2F%2Fwww.isotc211.org%2F2005%2Fgmd&request=GetRecordById&version=2.0.2&ElementSetName=full&id=dde48324-8f9b-11e1-93e1-8dbb271999c8"]], "name": "geonode:perct_idp_aug09"}, {"attribution": {"href": "", "title": ""}, "uuid": "b8d243ca-e6f1-11e1-a841-6bd195604282", "_local": true, "title": "Uganda soils of northern province", "_permissions": {"change_permissions": false, "delete": false, "change": false, "view": true}, "abstract": "This layer shows soil types of northern province. The dataset was downloaded from the European Digital Archive of Soil Maps(EuDASM) at http://eusoils.jrc.ec.europa.eu/esdb_archive/eudasm/africa/lists/cug.htm on the 30th July 2012,", "download_links": [["tiff", "GeoTIFF ", "http://geonode.mountbatten.net/geoserver/wcs?CRS=EPSG%3A4326&version=1.0.0&coverage=geonode%3Anorthern_province_afr_ug3002_so_modified&service=WCS&width=6028&format=geotiff&request=GetCoverage&bbox=30.530983351721627%2C1.2035648966934547%2C33.93166319495123%2C4.136644210807555&height=5199"], ["jpg", "JPEG ", "http://geonode.mountbatten.net/geoserver/wms?layers=geonode%3Anorthern_province_afr_ug3002_so_modified&width=637&bbox=30.530983351721627%2C1.2035648966934547%2C33.93166319495123%2C4.136644210807555&service=WMS&format=image%2Fjpeg&srs=EPSG%3A4326&request=GetMap&height=550"], ["pdf", "PDF ", "http://geonode.mountbatten.net/geoserver/wms?layers=geonode%3Anorthern_province_afr_ug3002_so_modified&width=637&bbox=30.530983351721627%2C1.2035648966934547%2C33.93166319495123%2C4.136644210807555&service=WMS&format=application%2Fpdf&srs=EPSG%3A4326&request=GetMap&height=550"], ["png", "PNG ", "http://geonode.mountbatten.net/geoserver/wms?layers=geonode%3Anorthern_province_afr_ug3002_so_modified&width=637&bbox=30.530983351721627%2C1.2035648966934547%2C33.93166319495123%2C4.136644210807555&service=WMS&format=image%2Fpng&srs=EPSG%3A4326&request=GetMap&height=550"], ["KML", "KML ", "http://geonode.mountbatten.net/geoserver/wms/kml?layers=geonode%3Anorthern_province_afr_ug3002_so_modified&mode=download"], ["KML", "View in Google Earth ", "http://geonode.mountbatten.net/geoserver/wms/kml?layers=geonode%3Anorthern_province_afr_ug3002_so_modified&mode=refresh"]], "detail": "http://geonode.mountbatten.net/data/geonode:northern_province_afr_ug3002_so_modified", "bbox": {"minx": "30.530983351721627", "miny": "1.2035648966934547", "maxx": "33.93166319495123", "maxy": "4.136644210807555"}, "keywords": ["Soil,", "Northern", "Province"], "metadata_links": [["text/xml", "TC211", "http://geonode.mountbatten.net/geonetwork/srv/en/csw?service=CSW&OutputSchema=http%3A%2F%2Fwww.isotc211.org%2F2005%2Fgmd&request=GetRecordById&version=2.0.2&ElementSetName=full&id=b8d243ca-e6f1-11e1-a841-6bd195604282"]], "name": "geonode:northern_province_afr_ug3002_so_modified"}, {"attribution": {"href": "", "title": ""}, "uuid": "85238b08-e785-11e1-b2f8-b3d600e7da9e", "_local": true, "title": "Uganda soils of south Karamoja in 1959", "_permissions": {"change_permissions": false, "delete": false, "change": false, "view": true}, "abstract": "This layer shows soils in south Karamoja in 1959. The dataset is from the European Digital Archives of Soil Maps(EuDASM) 2005 at http://eusoils.jrc.ec.europa.eu/esdb_archive/eudasm/africa/images/maps/download/afr_ug3004_1so.jpg", "download_links": [["tiff", "GeoTIFF ", "http://geonode.mountbatten.net/geoserver/wcs?CRS=EPSG%3A4326&version=1.0.0&coverage=geonode%3Asouth_karamoja_afr_ug3004_1so_modified&service=WCS&width=6943&format=geotiff&request=GetCoverage&bbox=33.48179975167866%2C1.1010324767698554%2C35.45072242380828%2C2.8187360406755655&height=6057"], ["jpg", "JPEG ", "http://geonode.mountbatten.net/geoserver/wms?layers=geonode%3Asouth_karamoja_afr_ug3004_1so_modified&width=630&bbox=33.48179975167866%2C1.1010324767698554%2C35.45072242380828%2C2.8187360406755655&service=WMS&format=image%2Fjpeg&srs=EPSG%3A4326&request=GetMap&height=550"], ["pdf", "PDF ", "http://geonode.mountbatten.net/geoserver/wms?layers=geonode%3Asouth_karamoja_afr_ug3004_1so_modified&width=630&bbox=33.48179975167866%2C1.1010324767698554%2C35.45072242380828%2C2.8187360406755655&service=WMS&format=application%2Fpdf&srs=EPSG%3A4326&request=GetMap&height=550"], ["png", "PNG ", "http://geonode.mountbatten.net/geoserver/wms?layers=geonode%3Asouth_karamoja_afr_ug3004_1so_modified&width=630&bbox=33.48179975167866%2C1.1010324767698554%2C35.45072242380828%2C2.8187360406755655&service=WMS&format=image%2Fpng&srs=EPSG%3A4326&request=GetMap&height=550"], ["KML", "KML ", "http://geonode.mountbatten.net/geoserver/wms/kml?layers=geonode%3Asouth_karamoja_afr_ug3004_1so_modified&mode=download"], ["KML", "View in Google Earth ", "http://geonode.mountbatten.net/geoserver/wms/kml?layers=geonode%3Asouth_karamoja_afr_ug3004_1so_modified&mode=refresh"]], "detail": "http://geonode.mountbatten.net/data/geonode:south_karamoja_afr_ug3004_1so_modified", "bbox": {"minx": "33.48179975167866", "miny": "1.1010324767698554", "maxx": "35.45072242380828", "maxy": "2.8187360406755655"}, "keywords": ["Soil"], "metadata_links": [["text/xml", "TC211", "http://geonode.mountbatten.net/geonetwork/srv/en/csw?service=CSW&OutputSchema=http%3A%2F%2Fwww.isotc211.org%2F2005%2Fgmd&request=GetRecordById&version=2.0.2&ElementSetName=full&id=85238b08-e785-11e1-b2f8-b3d600e7da9e"]], "name": "geonode:south_karamoja_afr_ug3004_1so_modified"}], "success": true, "next": "/data/search/api?q=&start=25&limit=25"}